{
    "embedding": {
        "tussenkop": {
            "opmaak": {
                "tussenkop_vet": "2.5"
            },
            "titel": {
                "Uitgaven": 1.5,
                "Toelichting": 1.5,
                "Artikel \\d:": 2,
                "Ad (\\d+(\\.)? en )?\\d+\\.": 2.5,
                "Ad(\\.)? \\d+[a-z]\\.": 3,
                "Ad 4a.": 2.5
            }
        }
    }
}