{
    "embedding": {
        "tussenkop": {
            "opmaak": {
                "tussenkop_vetcur": 1.5
            },
            "titel": {
                "Uitvoeren": 2.5,
                "Regisseren": 2.5,
                "Financieren": 2.5,
                "Artikel \\d\\.\\d": 3.5,
                "(I|II|III)\\.": 2.5,
                "\\d\\.?": 2.5
            }
        }
    }
}