{
    "embedding": {
        "tussenkop": {
            "opmaak": {
                "tussenkop_vet": 2.5
            },
            "titel": {
                "Uitgaven": 1.5,
                "\\d\\. ": 1.5,
                "Toelichting": 2,
                "Toelichting op de fin": 1,
                "TOELICHTING OP DE SALDIBALANS": 1,
                "Ad \\d+\\.( en \\d+\\.)?": 1.5,
                "Ad \\d+[a-z]\\.": 2
            }
        }
    }
}