{
    "embedding": {
        "tussenkop": {
            "opmaak": {
                "tussenkop_vetcur": 1.5
            },
            "titel": {
                "Artikel \\d\\.\\d+": 3.5,
                "Indicator Private Sector": 2.5
            }
        }
    }
}