{
    "embedding": {
        "tussenkop": {
            "opmaak": {
                "tussenkop_vet": 2.5,
                "tussenkop_cur": 3.5
            },
            "titel": {
                "Toelichting": 1.5,
                "3.1.4": 2
            }
        },
        "kop": {
            "titel": {
                "Inkomensoverdrachten": 5.9
            }
        }

    },
    "types": {
        "tabel": {
            "(?i)tabel \\d \\w+gefinancierde uitgaven en ontvangsten": "b-tabel"
        }
    }
}